AFI001|VWYB01000043.1.g5724.t1
AFI002|VWYA01000016.1.g1441.t1
AFI003|EAW15784.1
AFM001|KAF4221349.1
AFM002|KAF4223333.1
AFM003|KAF4238028.1
AFM004|KAF4251788.1
AFU001|EAL85566.1
AFU002|KAF4291701.1
AFU003|KAF4273985.1
AFU004|KAF4263762.1
AFU005|KAF4258763.1
AFU006|KAF4288581.1
AHI001|NODE_43_length_143525_cov_23.4.g2796.t1
AHI003|NODE_83_length_90629_cov_14.21.g3568.t1
ALE001|KAF4154882.1
ALE002|KAF4165812.1
ALE003|KAF4184421.1
ALE004|KAF4175265.1
ALE005|KAF4193716.1
ALE006|KAF4205152.1
ALE007|GAQ03556.1
ALE008|GFF78260.1
ALE009|GFG09388.1
ALE010|GFF73378.1
ALE011|GFF35919.1
ALE012|GFF59724.1
ANV001|PKX95822.1
AOE001|A_oerling_CBS139183_05017-RA
AOE001|A_oerling_CBS139183_09926-RA
APA001|NODE_51_length_158002_cov_17.6.g3691.t1
APA002|NODE_2_length_565447_cov_25.88.g224.t1
ATH002|RHZ51872.1
ATU001|RHZ52637.1
ATU002|RLL94626.1
AUD003|GAO84006.1
AUD004|GFG25323.1
AUD005|GFF53876.1
AUD006|GFG14935.1
AUD007|GFF57960.1
AUD008|GFF96903.1
AVI001|SIHR01000054.1.g8429.t1
